simple_square:
x = -8
y = -8
robot: 5, 5


bug :  (caso con ostacolo raggiungibile)
x = -8
y = 8
robot: 5,5

bug : (caso con ostacolo non raggiungibile)
x = 6
y = 12
robot: 5,5

square_maze_simple : 
caso 1) 
robot: 5,8
x = -4 
y = 0

caso 2) 
robot: -7, -7
x = 4
y = 8

square_maze_medium:
robot: 8, 2
x = -5
y = -12

